<!--
	Copyright (C) 2018 Minho Jo <whitestone8214@gmail.com>
	
	This program is free software: you can redistribute it and/or modify
	it under the terms of the GNU General Public License as published by
	the Free Software Foundation, either version 3 of the License, or
	(at your option) any later version.
	
	This program is distributed in the hope that it will be useful,
	but WITHOUT ANY WARRANTY; without even the implied warranty of
	MERCHANTABILITY or FITNESS FOR A PARTICULAR PURPOSE.  See the
	GNU General Public License for more details.
	
	You should have received a copy of the GNU General Public License
	along with this program.  If not, see <http://www.gnu.org/licenses/>.
-->


<svg width="100" height="100" xmlns="http://www.w3.org/2000/svg">
	<path d="M 0,50 L 40,99 L 99,0" stroke="#000000" stroke-width="5px" fill="none" />
</svg>
