<!--
	Copyright (C) 2018 Minho Jo <whitestone8214@gmail.com>
	
	This program is free software: you can redistribute it and/or modify
	it under the terms of the GNU General Public License as published by
	the Free Software Foundation, either version 3 of the License, or
	(at your option) any later version.
	
	This program is distributed in the hope that it will be useful,
	but WITHOUT ANY WARRANTY; without even the implied warranty of
	MERCHANTABILITY or FITNESS FOR A PARTICULAR PURPOSE.  See the
	GNU General Public License for more details.
	
	You should have received a copy of the GNU General Public License
	along with this program.  If not, see <http://www.gnu.org/licenses/>.
-->


<svg width="100" height="100" xmlns="http://www.w3.org/2000/svg">
	<!--<path d="M 49,0 L 49,20 M 50,0 L 50,20 M 0,30 L 99,30 M 0,40 L 0,99 L 99,99 L 99,40 M 15,40 L 15,89 M 84,40 L 84,89 M 35,40 L 35,89 M 64,40 L 64,89" stroke="#000000" stroke-width="5px" fill="none" />-->
	<path d="M 10,20 L 89,10 M 15,30 L 15,89 L 84,89 L 84,30 M 30,30 L 30,79 M 69,30 L 69,79 M 49,30 L 49,79 M 50,30 L 50,79" stroke="#000000" stroke-width="10px" fill="none" />
</svg>
